{"frames": [

{
	"filename": "button-default.png",
	"frame": {"x":2,"y":2,"w":309,"h":68},
	"rotated": false,
	"trimmed": false,
	"spriteSourceSize": {"x":0,"y":0,"w":309,"h":68},
	"sourceSize": {"w":309,"h":68},
	"pivot": {"x":0.5,"y":0.5}
},
{
	"filename": "button-hover.png",
	"frame": {"x":313,"y":2,"w":309,"h":68},
	"rotated": false,
	"trimmed": false,
	"spriteSourceSize": {"x":0,"y":0,"w":309,"h":68},
	"sourceSize": {"w":309,"h":68},
	"pivot": {"x":0.5,"y":0.5}
},
{
	"filename": "button-pressed.png",
	"frame": {"x":624,"y":2,"w":309,"h":68},
	"rotated": false,
	"trimmed": false,
	"spriteSourceSize": {"x":0,"y":0,"w":309,"h":68},
	"sourceSize": {"w":309,"h":68},
	"pivot": {"x":0.5,"y":0.5}
}],
"meta": {
	"app": "http://www.codeandweb.com/texturepacker",
	"version": "1.0",
	"image": "buttons.png",
	"format": "RGBA8888",
	"size": {"w":935,"h":72},
	"scale": "1",
	"smartupdate": "$TexturePacker:SmartUpdate:74c12632765bfeb64e228addf9f2771b:00b313e34bf919e923344c75a9c02b7b:b34c8670b11bb20cb1751a70d3683e22$"
}
}
