{"frames": [

{
	"filename": "glide-button-normal.png",
	"frame": {"x":2,"y":2,"w":250,"h":250},
	"rotated": false,
	"trimmed": false,
	"spriteSourceSize": {"x":0,"y":0,"w":250,"h":250},
	"sourceSize": {"w":250,"h":250},
	"pivot": {"x":0.5,"y":0.5}
},
{
	"filename": "glide-button-notpressed.png",
	"frame": {"x":254,"y":2,"w":250,"h":250},
	"rotated": false,
	"trimmed": false,
	"spriteSourceSize": {"x":0,"y":0,"w":250,"h":250},
	"sourceSize": {"w":250,"h":250},
	"pivot": {"x":0.5,"y":0.5}
},
{
	"filename": "glide-button-pressed.png",
	"frame": {"x":506,"y":2,"w":250,"h":250},
	"rotated": false,
	"trimmed": false,
	"spriteSourceSize": {"x":0,"y":0,"w":250,"h":250},
	"sourceSize": {"w":250,"h":250},
	"pivot": {"x":0.5,"y":0.5}
},
{
	"filename": "hunger-button-inactive.png",
	"frame": {"x":758,"y":2,"w":250,"h":250},
	"rotated": false,
	"trimmed": false,
	"spriteSourceSize": {"x":0,"y":0,"w":250,"h":250},
	"sourceSize": {"w":250,"h":250},
	"pivot": {"x":0.5,"y":0.5}
},
{
	"filename": "hunger-button-normal.png",
	"frame": {"x":1010,"y":2,"w":250,"h":250},
	"rotated": false,
	"trimmed": false,
	"spriteSourceSize": {"x":0,"y":0,"w":250,"h":250},
	"sourceSize": {"w":250,"h":250},
	"pivot": {"x":0.5,"y":0.5}
},
{
	"filename": "hunger-button-pressed.png",
	"frame": {"x":1262,"y":2,"w":250,"h":250},
	"rotated": false,
	"trimmed": false,
	"spriteSourceSize": {"x":0,"y":0,"w":250,"h":250},
	"sourceSize": {"w":250,"h":250},
	"pivot": {"x":0.5,"y":0.5}
}],
"meta": {
	"app": "http://www.codeandweb.com/texturepacker",
	"version": "1.0",
	"image": "shopButtons.png",
	"format": "RGBA8888",
	"size": {"w":1514,"h":254},
	"scale": "1",
	"smartupdate": "$TexturePacker:SmartUpdate:54172462fe1f3f210af5a2d9c60fd1f1:5fe7e3911adbfae8400b62a601a5bb05:553c69cffc228b4494b2af18f056d389$"
}
}
