{"frames": [

{
	"filename": "wind01.png",
	"frame": {"x":2,"y":2,"w":113,"h":152},
	"rotated": false,
	"trimmed": false,
	"spriteSourceSize": {"x":0,"y":0,"w":113,"h":152},
	"sourceSize": {"w":113,"h":152},
	"pivot": {"x":0.5,"y":0.5}
},
{
	"filename": "wind02.png",
	"frame": {"x":117,"y":2,"w":129,"h":155},
	"rotated": false,
	"trimmed": false,
	"spriteSourceSize": {"x":0,"y":0,"w":129,"h":155},
	"sourceSize": {"w":129,"h":155},
	"pivot": {"x":0.5,"y":0.5}
},
{
	"filename": "wind03.png",
	"frame": {"x":248,"y":2,"w":130,"h":160},
	"rotated": false,
	"trimmed": false,
	"spriteSourceSize": {"x":0,"y":0,"w":130,"h":160},
	"sourceSize": {"w":130,"h":160},
	"pivot": {"x":0.5,"y":0.5}
},
{
	"filename": "wind04.png",
	"frame": {"x":380,"y":2,"w":131,"h":162},
	"rotated": false,
	"trimmed": false,
	"spriteSourceSize": {"x":0,"y":0,"w":131,"h":162},
	"sourceSize": {"w":131,"h":162},
	"pivot": {"x":0.5,"y":0.5}
},
{
	"filename": "wind05.png",
	"frame": {"x":513,"y":2,"w":127,"h":165},
	"rotated": false,
	"trimmed": false,
	"spriteSourceSize": {"x":0,"y":0,"w":127,"h":165},
	"sourceSize": {"w":127,"h":165},
	"pivot": {"x":0.5,"y":0.5}
},
{
	"filename": "wind06.png",
	"frame": {"x":642,"y":2,"w":130,"h":166},
	"rotated": false,
	"trimmed": false,
	"spriteSourceSize": {"x":0,"y":0,"w":130,"h":166},
	"sourceSize": {"w":130,"h":166},
	"pivot": {"x":0.5,"y":0.5}
},
{
	"filename": "wind07.png",
	"frame": {"x":774,"y":2,"w":130,"h":166},
	"rotated": false,
	"trimmed": false,
	"spriteSourceSize": {"x":0,"y":0,"w":130,"h":166},
	"sourceSize": {"w":130,"h":166},
	"pivot": {"x":0.5,"y":0.5}
},
{
	"filename": "wind08.png",
	"frame": {"x":906,"y":2,"w":131,"h":166},
	"rotated": false,
	"trimmed": false,
	"spriteSourceSize": {"x":0,"y":0,"w":131,"h":166},
	"sourceSize": {"w":131,"h":166},
	"pivot": {"x":0.5,"y":0.5}
},
{
	"filename": "wind09.png",
	"frame": {"x":1039,"y":2,"w":129,"h":166},
	"rotated": false,
	"trimmed": false,
	"spriteSourceSize": {"x":0,"y":0,"w":129,"h":166},
	"sourceSize": {"w":129,"h":166},
	"pivot": {"x":0.5,"y":0.5}
},
{
	"filename": "wind10.png",
	"frame": {"x":1170,"y":2,"w":128,"h":166},
	"rotated": false,
	"trimmed": false,
	"spriteSourceSize": {"x":0,"y":0,"w":128,"h":166},
	"sourceSize": {"w":128,"h":166},
	"pivot": {"x":0.5,"y":0.5}
},
{
	"filename": "wind11.png",
	"frame": {"x":1300,"y":2,"w":125,"h":163},
	"rotated": false,
	"trimmed": false,
	"spriteSourceSize": {"x":0,"y":0,"w":125,"h":163},
	"sourceSize": {"w":125,"h":163},
	"pivot": {"x":0.5,"y":0.5}
},
{
	"filename": "wind12.png",
	"frame": {"x":1427,"y":0,"w":116,"h":160},
	"rotated": false,
	"trimmed": false,
	"spriteSourceSize": {"x":0,"y":0,"w":116,"h":160},
	"sourceSize": {"w":116,"h":160},
	"pivot": {"x":0.5,"y":0.5}
},
{
	"filename": "wind13.png",
	"frame": {"x":1545,"y":-3,"w":114,"h":160},
	"rotated": false,
	"trimmed": false,
	"spriteSourceSize": {"x":0,"y":0,"w":114,"h":160},
	"sourceSize": {"w":114,"h":160},
	"pivot": {"x":0.5,"y":0.5}
},
{
	"filename": "wind14.png",
	"frame": {"x":1661,"y":-5,"w":84,"h":160},
	"rotated": false,
	"trimmed": false,
	"spriteSourceSize": {"x":0,"y":0,"w":84,"h":160},
	"sourceSize": {"w":84,"h":160},
	"pivot": {"x":0.5,"y":0.5}
}],
"meta": {
	"app": "http://www.codeandweb.com/texturepacker",
	"version": "1.0",
	"image": "wind.png",
	"format": "RGBA8888",
	"size": {"w":1747,"h":170},
	"scale": "1",
	"smartupdate": "$TexturePacker:SmartUpdate:81f1382de8e1b8774fa2ba90e4377e70:fa08fbd116e50f7721531445f5ad2c2e:e58866dcdc8694a9a9ae46e55ae60f3d$"
}
}
