{"frames": [

{
	"filename": "flower9.png",
	"frame": {"x":2,"y":2,"w":78,"h":148},
	"rotated": false,
	"trimmed": false,
	"spriteSourceSize": {"x":0,"y":0,"w":78,"h":148},
	"sourceSize": {"w":78,"h":148},
	"pivot": {"x":0.5,"y":0.5}
},
{
	"filename": "flower8.png",
	"frame": {"x":2,"y":152,"w":77,"h":167},
	"rotated": false,
	"trimmed": false,
	"spriteSourceSize": {"x":0,"y":0,"w":77,"h":167},
	"sourceSize": {"w":77,"h":167},
	"pivot": {"x":0.5,"y":0.5}
},
{
	"filename": "flower7.png",
	"frame": {"x":2,"y":321,"w":67,"h":177},
	"rotated": false,
	"trimmed": false,
	"spriteSourceSize": {"x":0,"y":0,"w":67,"h":177},
	"sourceSize": {"w":67,"h":177},
	"pivot": {"x":0.5,"y":0.5}
},
{
	"filename": "flower6.png",
	"frame": {"x":71,"y":321,"w":46,"h":193},
	"rotated": false,
	"trimmed": false,
	"spriteSourceSize": {"x":0,"y":0,"w":46,"h":193},
	"sourceSize": {"w":46,"h":193},
	"pivot": {"x":0.5,"y":0.5}
},
{
	"filename": "flower5.png",
	"frame": {"x":2,"y":516,"w":69,"h":199},
	"rotated": false,
	"trimmed": false,
	"spriteSourceSize": {"x":0,"y":0,"w":69,"h":199},
	"sourceSize": {"w":69,"h":199},
	"pivot": {"x":0.5,"y":0.5}
},
{
	"filename": "flower4.png",
	"frame": {"x":2,"y":717,"w":113,"h":195},
	"rotated": false,
	"trimmed": false,
	"spriteSourceSize": {"x":0,"y":0,"w":113,"h":195},
	"sourceSize": {"w":113,"h":195},
	"pivot": {"x":0.5,"y":0.5}
},
{
	"filename": "flower3.png",
	"frame": {"x":2,"y":914,"w":83,"h":185},
	"rotated": false,
	"trimmed": false,
	"spriteSourceSize": {"x":0,"y":0,"w":83,"h":185},
	"sourceSize": {"w":83,"h":185},
	"pivot": {"x":0.5,"y":0.5}
},
{
	"filename": "flower2.png",
	"frame": {"x":2,"y":1101,"w":110,"h":186},
	"rotated": false,
	"trimmed": false,
	"spriteSourceSize": {"x":0,"y":0,"w":110,"h":186},
	"sourceSize": {"w":110,"h":186},
	"pivot": {"x":0.5,"y":0.5}
},
{
	"filename": "flower1.psd",
	"frame": {"x":2,"y":1289,"w":123,"h":183},
	"rotated": false,
	"trimmed": false,
	"spriteSourceSize": {"x":0,"y":0,"w":123,"h":183},
	"sourceSize": {"w":123,"h":183},
	"pivot": {"x":0.5,"y":0.5}
},
{
	"filename": "flower1.png",
	"frame": {"x":2,"y":1474,"w":123,"h":183},
	"rotated": false,
	"trimmed": false,
	"spriteSourceSize": {"x":0,"y":0,"w":123,"h":183},
	"sourceSize": {"w":123,"h":183},
	"pivot": {"x":0.5,"y":0.5}
}],
"meta": {
	"app": "http://www.codeandweb.com/texturepacker",
	"version": "1.0",
	"image": "flower.png",
	"format": "RGBA8888",
	"size": {"w":127,"h":1659},
	"scale": "1",
	"smartupdate": "$TexturePacker:SmartUpdate:b57919da380e61c9acf316a9929e1287:a5577eb04772728e63702c63ff2e5519:e5195cc89bf882fc7be5fc838224528a$"
}
}
